…
and locate stores in your area

``` r
store_locator(city = "Houston", key = key)
```

    #> # A tibble: 86 x 12
    #>       no                                name country       lon      lat
    #>    <int>                               <chr>   <chr>     <dbl>    <dbl>
    #>  1  5959                     Houston Walmart      US -95.40132 29.77282
    #>  2  5612         Houston Walmart Supercenter      US -95.31293 29.71622
    #>  3  4526         Houston Walmart Supercenter      US -95.37707 29.82985
    #>  4  3640         Houston Walmart Supercenter      US -95.46515 29.78876
    #>  5  3584         Houston Walmart Supercenter      US -95.46501 29.72305
    #>  6  2718                     Houston Walmart      US -95.45750 29.67688
    #>  7  2066         Houston Walmart Supercenter      US -95.51169 29.73549
    #>  8  5094 Houston Walmart Neighborhood Market      US -95.49547 29.67444
    #>  9  2257         Houston Walmart Supercenter      US -95.50908 29.85391
    #> 10  2724        Pasadena Walmart Supercenter      US -95.21038 29.69344
    #> # ... with 76 more rows, and 7 more variables: streetAddress <chr>,
    #> #   city <chr>, stateProvCode <chr>, zip <chr>, phoneNumber <chr>,
    #> #   sundayOpen <lgl>, timezone <chr>
